-------------------------------------------------------------------------------
Test set: sg.gov.ntp.business.service.mapping.StudentServiceMapperTest
-------------------------------------------------------------------------------
Tests run: 2, Failures: 0, Errors: 0, Skipped: 0, Time elapsed: 0.08 sec
